<svg xmlns="http://www.w3.org/2000/svg" width="48" height="48" viewBox="0 0 48 48">
    <path d="M0 0h48v48H0z" fill="none"/>
    <path fill="white" d="M40 26H8c-1.1 0-2 .9-2 2v12c0 1.1.9 2 2 2h32c1.1 0 2-.9 2-2V28c0-1.1-.9-2-2-2zM14 38c-2.21 0-4-1.79-4-4s1.79-4 4-4 4 1.79 4 4-1.79 4-4 4zM40 6H8c-1.1 0-2 .9-2 2v12c0 1.1.9 2 2 2h32c1.1 0 2-.9 2-2V8c0-1.1-.9-2-2-2zM14 18c-2.21 0-4-1.79-4-4s1.79-4 4-4 4 1.79 4 4-1.79 4-4 4z"/>
</svg>
